Manipulating and analysing data with dplyr
…
```r
surveys_g2 <-group_by(surveys, sex, species_id)
mean_w <- summarize(surveys_g2, 
                    mean_weight = mean(weight, na.rm = TRUE))
```

---

```r
mean_w
```

```
## # A tibble: 92 x 3
## # Groups:   sex [3]
##    sex   species_id mean_weight
##    <chr> <chr>            <dbl>
##  1 F     BA                9.16
##  2 F     DM               41.6 
##  3 F     DO               48.5 
##  4 F     DS              118.  
##  5 F     NL              154.  
##  6 F     OL               31.1 
##  7 F     OT               24.8 
##  8 F     OX               21   
##  9 F     PB               30.2 
## 10 F     PE               22.8 
## # … with 82 more rows
```
…
