…
some principal functions in **dplyr**
-------------------------------------

-   **select** (columns)
-   **filter** (rows)
-   **rename** (columns)
-   **mutate** (create new columns or modify existing columns)
-   **arrange** to sort according to a column
-   **count** cases of one or many columns

### `select()` columns

    select(surveys, plot_id, species_id, weight)

    ## # A tibble: 34,786 x 3
    ##    plot_id species_id weight
    ##      <dbl> <chr>       <dbl>
    ##  1       2 NL             NA
    ##  2       2 NL             NA
    ##  3       2 NL             NA
    ##  4       2 NL             NA
    ##  5       2 NL             NA
    ##  6       2 NL             NA
    ##  7       2 NL             NA
    ##  8       2 NL             NA
    ##  9       2 NL            218
    ## 10       2 NL             NA
    ## # … with 34,776 more rows
…
### another example:

    surveys_g2 <-group_by(surveys, sex, species_id)
    mean_w <- summarize(surveys_g2, 
                        mean_weight = mean(weight, na.rm = TRUE))

    mean_w

    ## # A tibble: 92 x 3
    ## # Groups:   sex [3]
    ##    sex   species_id mean_weight
    ##    <chr> <chr>            <dbl>
    ##  1 F     BA                9.16
    ##  2 F     DM               41.6 
    ##  3 F     DO               48.5 
    ##  4 F     DS              118.  
    ##  5 F     NL              154.  
    ##  6 F     OL               31.1 
    ##  7 F     OT               24.8 
    ##  8 F     OX               21   
    ##  9 F     PB               30.2 
    ## 10 F     PE               22.8 
    ## # … with 82 more rows
…
    surveys %>%
        count(sex)

    ## # A tibble: 3 x 2
    ##   sex       n
    ##   <chr> <int>
    ## 1 F     15690
    ## 2 M     17348
    ## 3 <NA>   1748

    surveys %>%
      count(sex, species) 

    ## # A tibble: 81 x 3
    ##    sex   species         n
    ##    <chr> <chr>       <int>
    ##  1 F     albigula      675
    ##  2 F     baileyi      1646
    ##  3 F     eremicus      579
    ##  4 F     flavus        757
    ##  5 F     fulvescens     57
    ##  6 F     fulviventer    17
    ##  7 F     hispidus       99
    ##  8 F     leucogaster   475
    ##  9 F     leucopus       16
    ## 10 F     maniculatus   382
    ## # … with 71 more rows

    surveys %>%
      count(sex, species) %>%
      arrange(species, desc(n))

    ## # A tibble: 81 x 3
    ##    sex   species             n
    ##    <chr> <chr>           <int>
    ##  1 F     albigula          675
    ##  2 M     albigula          502
    ##  3 <NA>  albigula           75
    ##  4 <NA>  audubonii          75
    ##  5 F     baileyi          1646
    ##  6 M     baileyi          1216
    ##  7 <NA>  baileyi            29
    ##  8 <NA>  bilineata         303
    ##  9 <NA>  brunneicapillus    50
    ## 10 <NA>  chlorurus          39
    ## # … with 71 more rows
…
    surveys %>%
        filter(!is.na(hindfoot_length)) %>%
        group_by(species_id) %>%
        summarize(
            mean_hindfoot_length = mean(hindfoot_length),
            min_hindfoot_length = min(hindfoot_length),
            max_hindfoot_length = max(hindfoot_length),
            n = n()
        )

    ## `summarise()` ungrouping output (override with `.groups` argument)

    ## # A tibble: 25 x 5
    ##    species_id mean_hindfoot_length min_hindfoot_length max_hindfoot_length     n
    ##    <chr>                     <dbl>               <dbl>               <dbl> <int>
    ##  1 AH                         33                    31                  35     2
    ##  2 BA                         13                     6                  16    45
    ##  3 DM                         36.0                  16                  50  9972
    ##  4 DO                         35.6                  26                  64  2887
    ##  5 DS                         49.9                  39                  58  2132
    ##  6 NL                         32.3                  21                  70  1074
    ##  7 OL                         20.5                  12                  39   920
    ##  8 OT                         20.3                  13                  50  2139
    ##  9 OX                         19.1                  13                  21     8
    ## 10 PB                         26.1                   2                  47  2864
    ## # … with 15 more rows
…
