Data analysis and visualization in R
…
```r
surveys_g2 <-group_by(surveys, sex, species_id)
mean_w <- summarize(surveys_g2, 
                    mean_weight = mean(weight, na.rm = TRUE))
```

---

```r
mean_w
```

```
## # A tibble: 92 x 3
## # Groups:   sex [3]
##    sex   species_id mean_weight
##    <chr> <chr>            <dbl>
##  1 F     BA                9.16
##  2 F     DM               41.6 
##  3 F     DO               48.5 
##  4 F     DS              118.  
##  5 F     NL              154.  
##  6 F     OL               31.1 
##  7 F     OT               24.8 
##  8 F     OX               21   
##  9 F     PB               30.2 
## 10 F     PE               22.8 
## # … with 82 more rows
```
…
```
## `summarise()` regrouping output by 'plot_type' (override with `.groups` argument)
```

```
## # A tibble: 181 x 3
## # Groups:   plot_type [5]
##    plot_type                 species_id     n
##    <chr>                     <chr>      <int>
##  1 Control                   DM          6760
##  2 Control                   DO          1671
##  3 Spectab exclosure         DM          1584
##  4 Control                   DS          1389
##  5 Short-term Krat Exclosure DM          1156
##  6 Control                   PP          1108
##  7 Long-term Krat Exclosure  PB          1047
##  8 Rodent Exclosure          RM          1045
##  9 Control                   OT          1004
## 10 Long-term Krat Exclosure  PP           879
## # … with 171 more rows
```

```
## # A tibble: 34,786 x 14
## # Groups:   plot_type, species_id [181]
##    record_id month   day  year plot_id species_id sex   hindfoot_length weight
##        <dbl> <dbl> <dbl> <dbl>   <dbl> <chr>      <chr>           <dbl>  <dbl>
##  1         1     7    16  1977       2 NL         M                  32     NA
##  2        72     8    19  1977       2 NL         M                  31     NA
##  3       224     9    13  1977       2 NL         <NA>               NA     NA
##  4       266    10    16  1977       2 NL         <NA>               NA     NA
##  5       349    11    12  1977       2 NL         <NA>               NA     NA
##  6       363    11    12  1977       2 NL         <NA>               NA     NA
##  7       435    12    10  1977       2 NL         <NA>               NA     NA
##  8       506     1     8  1978       2 NL         <NA>               NA     NA
##  9       588     2    18  1978       2 NL         M                  NA    218
## 10       661     3    11  1978       2 NL         <NA>               NA     NA
## # … with 34,776 more rows, and 5 more variables: genus <chr>, species <chr>,
## #   taxa <chr>, plot_type <chr>, weight_kg <dbl>
```
…
